simulation/qsim/Lab6.msim.vcd
$comment
	File created using the following command:
		vcd file Lab6.msim.vcd -direction
$end
$date
	Sat Dec 05 19:33:25 2020
$end
$version
	ModelSim Version 10.1d
$end
$timescale
	1ps
$end
$scope module ALU3_Block_vlg_vec_tst $end
$var reg 8 ! A [7:0] $end
$var reg 8 " B [7:0] $end
$var reg 1 # Clock $end
$var reg 1 $ Data_in $end
$var reg 1 % Enable $end
$var reg 1 & L1Reset $end
$var reg 1 ' L2Reset $end
$var reg 1 ( Reset $end
$var wire 1 ) OP [0] $end
$var wire 1 * OP [1] $end
$var wire 1 + OP [2] $end
$var wire 1 , OP [3] $end
$var wire 1 - OP [4] $end
$var wire 1 . OP [5] $end
$var wire 1 / OP [6] $end
$var wire 1 0 OP [7] $end
$var wire 1 1 OP [8] $end
$var wire 1 2 OP [9] $end
$var wire 1 3 OP [10] $end
$var wire 1 4 OP [11] $end
$var wire 1 5 OP [12] $end
$var wire 1 6 OP [13] $end
$var wire 1 7 OP [14] $end
$var wire 1 8 OP [15] $end
$var wire 1 9 RFirst [0] $end
$var wire 1 : RFirst [1] $end
$var wire 1 ; RFirst [2] $end
$var wire 1 < RFirst [3] $end
$var wire 1 = RFirst [4] $end
$var wire 1 > RFirst [5] $end
$var wire 1 ? RFirst [6] $end
$var wire 1 @ RLast [0] $end
$var wire 1 A RLast [1] $end
$var wire 1 B RLast [2] $end
$var wire 1 C RLast [3] $end
$var wire 1 D RLast [4] $end
$var wire 1 E RLast [5] $end
$var wire 1 F RLast [6] $end
$var wire 1 G Sign [0] $end
$var wire 1 H Sign [1] $end
$var wire 1 I Sign [2] $end
$var wire 1 J Sign [3] $end
$var wire 1 K Sign [4] $end
$var wire 1 L Sign [5] $end
$var wire 1 M Sign [6] $end
$var wire 1 N Student_ID [0] $end
$var wire 1 O Student_ID [1] $end
$var wire 1 P Student_ID [2] $end
$var wire 1 Q Student_ID [3] $end
$var wire 1 R Student_ID [4] $end
$var wire 1 S Student_ID [5] $end
$var wire 1 T Student_ID [6] $end
$var wire 1 U sampler $end
$scope module i1 $end
$var wire 1 V gnd $end
$var wire 1 W vcc $end
$var wire 1 X unknown $end
$var tri1 1 Y devclrn $end
$var tri1 1 Z devpor $end
$var tri1 1 [ devoe $end
$var wire 1 \ Clock~combout $end
$var wire 1 ] Clock~clkctrl_outclk $end
$var wire 1 ^ inst16|yfsm.s8~feeder_combout $end
$var wire 1 _ Reset~combout $end
$var wire 1 ` Reset~clkctrl_outclk $end
$var wire 1 a Data_in~combout $end
$var wire 1 b inst16|yfsm.s8~regout $end
$var wire 1 c inst16|yfsm.s0~0_combout $end
$var wire 1 d inst16|yfsm.s0~regout $end
$var wire 1 e inst16|yfsm.s1~0_combout $end
$var wire 1 f inst16|yfsm.s1~regout $end
$var wire 1 g inst16|yfsm.s2~regout $end
$var wire 1 h inst16|yfsm.s3~regout $end
$var wire 1 i inst16|yfsm.s4~feeder_combout $end
$var wire 1 j inst16|yfsm.s4~regout $end
$var wire 1 k inst16|yfsm.s5~regout $end
$var wire 1 l inst16|yfsm.s6~feeder_combout $end
$var wire 1 m inst16|yfsm.s6~regout $end
$var wire 1 n inst16|yfsm.s7~regout $end
$var wire 1 o inst16|WideOr10~0_combout $end
$var wire 1 p inst16|WideOr11~0_combout $end
$var wire 1 q inst16|WideOr9~combout $end
$var wire 1 r Enable~combout $end
$var wire 1 s inst3|comb~0_combout $end
$var wire 1 t inst3|dec0|Mux0~0_combout $end
$var wire 1 u inst3|dec0|Mux1~0_combout $end
$var wire 1 v inst3|dec0|Mux2~0_combout $end
$var wire 1 w inst3|dec0|Mux3~0_combout $end
$var wire 1 x inst3|dec0|Mux4~0_combout $end
$var wire 1 y inst3|dec0|Mux5~0_combout $end
$var wire 1 z inst3|dec0|Mux6~0_combout $end
$var wire 1 { inst3|dec0|Mux7~0_combout $end
$var wire 1 | inst3|comb~1_combout $end
$var wire 1 } inst16|WideOr10~1_combout $end
$var wire 1 ~ inst16|WideOr13~0_combout $end
$var wire 1 !! inst16|student_ID[3]~0_combout $end
$var wire 1 "! inst16|WideOr12~combout $end
$var wire 1 #! inst10|Mux0~0_combout $end
$var wire 1 $! inst10|Mux1~0_combout $end
$var wire 1 %! inst10|Mux2~4_combout $end
$var wire 1 &! inst10|Mux3~2_combout $end
$var wire 1 '! inst10|Mux4~0_combout $end
$var wire 1 (! inst10|Mux5~0_combout $end
$var wire 1 )! inst10|Mux6~0_combout $end
$upscope $end
$upscope $end
$enddefinitions $end
#0
$dumpvars
b1000010 !
b1101001 "
0#
1$
1%
0&
0'
0(
08
07
06
05
04
03
02
01
00
0/
0.
0-
0,
0+
0*
1)
0?
1>
1=
1<
1;
1:
19
0F
1E
1D
1C
1B
1A
1@
0M
0L
0K
0J
0I
0H
0G
1T
1S
0R
1Q
1P
0O
1N
xU
0V
1W
xX
1Y
1Z
1[
0\
0]
0^
0_
0`
1a
0b
1c
0d
1e
0f
0g
0h
0i
0j
0k
0l
0m
0n
0o
0p
0q
1r
1s
1t
0u
0v
0w
0x
0y
0z
0{
0|
1}
1~
1!!
1"!
0#!
1$!
1%!
1&!
1'!
0(!
1)!
$end
#20000
1#
1\
1]
0U
1f
1d
1p
0"!
0~
0e
1u
0t
0)!
0'!
0$!
1*
0)
0T
1R
1O
#40000
0#
0\
0]
1U
#60000
1#
1\
1]
0U
1g
0f
1o
0p
1v
0u
1+
0*
#80000
0#
0\
0]
1U
#100000
1#
1\
1]
0U
1h
0g
0!!
1~
1p
1i
1)!
1'!
1w
0v
1T
1,
0+
0R
#120000
0#
0\
0]
1U
#140000
1#
1\
1]
0U
1j
0h
1"!
1q
1!!
0p
0o
0i
1$!
1x
0w
1-
0,
0O
#160000
0#
0\
0]
1U
#180000
1#
1\
1]
0U
1k
0j
1p
1l
0~
1y
0x
0&!
0$!
1#!
1.
0-
0Q
1O
0N
#200000
0#
0\
0]
1U
#220000
1#
1\
1]
0U
1m
0k
1&!
0}
1o
0"!
0p
0l
1(!
0'!
0#!
1z
0y
0%!
1Q
1/
0.
0P
0S
1R
1N
#240000
0#
0\
0]
1U
#260000
1#
1\
1]
0U
1n
0m
1"!
1p
1^
0(!
1%!
1$!
1{
0z
1P
10
0/
1S
0O
#280000
0#
0\
0]
1U
#300000
1#
1\
1]
0U
0n
1b
0&!
0"!
1}
0q
0p
0o
0^
0!!
1~
1|
0s
0c
1'!
1&!
0$!
0{
0Q
11
1Q
00
0R
1O
#320000
0#
0\
0]
1U
#340000
1#
1\
1]
0U
0d
0b
1"!
1e
1!!
0|
1s
1c
1$!
1t
01
1)
0O
#360000
0#
0\
0]
1U
#380000
1#
1\
1]
0U
1f
1d
1p
0"!
0~
0e
1u
0t
0)!
0'!
0$!
1*
0)
0T
1R
1O
#400000
0#
0\
0]
1U
#420000
1#
1\
1]
0U
1g
0f
1o
0p
1v
0u
1+
0*
#440000
0#
0\
0]
1U
#460000
1#
1\
1]
0U
1h
0g
0!!
1~
1p
1i
1)!
1'!
1w
0v
1T
1,
0+
0R
#480000
0#
0\
0]
1U
#500000
1#
1\
1]
0U
1j
0h
1"!
1q
1!!
0p
0o
0i
1$!
1x
0w
1-
0,
0O
#520000
0#
0\
0]
1U
#540000
1#
1\
1]
0U
1k
0j
1p
1l
0~
1y
0x
0&!
0$!
1#!
1.
0-
0Q
1O
0N
#560000
0#
0\
0]
1U
#580000
1#
1\
1]
0U
1m
0k
1&!
0}
1o
0"!
0p
0l
1(!
0'!
0#!
1z
0y
0%!
1Q
1/
0.
0P
0S
1R
1N
#600000
0#
0\
0]
1U
#620000
1#
1\
1]
0U
1n
0m
1"!
1p
1^
0(!
1%!
1$!
1{
0z
1P
10
0/
1S
0O
#640000
0#
0\
0]
1U
#660000
1#
1\
1]
0U
0n
1b
0&!
0"!
1}
0q
0p
0o
0^
0!!
1~
1|
0s
0c
1'!
1&!
0$!
0{
0Q
11
1Q
00
0R
1O
#680000
0#
0\
0]
1U
#700000
1#
1\
1]
0U
0d
0b
1"!
1e
1!!
0|
1s
1c
1$!
1t
01
1)
0O
#720000
0#
0\
0]
1U
#740000
1#
1\
1]
0U
1f
1d
1p
0"!
0~
0e
1u
0t
0)!
0'!
0$!
1*
0)
0T
1R
1O
#760000
0#
0\
0]
1U
#780000
1#
1\
1]
0U
1g
0f
1o
0p
1v
0u
1+
0*
#800000
0#
0\
0]
1U
#820000
1#
1\
1]
0U
1h
0g
0!!
1~
1p
1i
1)!
1'!
1w
0v
1T
1,
0+
0R
#840000
0#
0\
0]
1U
#860000
1#
1\
1]
0U
1j
0h
1"!
1q
1!!
0p
0o
0i
1$!
1x
0w
1-
0,
0O
#880000
0#
0\
0]
1U
#900000
1#
1\
1]
0U
1k
0j
1p
1l
0~
1y
0x
0&!
0$!
1#!
1.
0-
0Q
1O
0N
#920000
0#
0\
0]
1U
#940000
1#
1\
1]
0U
1m
0k
1&!
0}
1o
0"!
0p
0l
1(!
0'!
0#!
1z
0y
0%!
1Q
1/
0.
0P
0S
1R
1N
#960000
0#
0\
0]
1U
#980000
1#
1\
1]
0U
1n
0m
1"!
1p
1^
0(!
1%!
1$!
1{
0z
1P
10
0/
1S
0O
